# WaveFront *.mtl file (generated by CINEMA 4D)

newmtl Mat
Ka 1 1 1
Kd 0 0 0
Ks 1 1 1
Ns 50
illum 7

newmtl Mat_1
Ka 1 1 1
Kd 0.88999998569489 0.74537497758865 0.3115000128746
Ks 1 1 1
Ns 50
illum 7

